<?xml version="1.0" encoding="UTF-8" standalone="no"?><svg xmlns="http://www.w3.org/2000/svg" xmlns:xlink="http://www.w3.org/1999/xlink" contentScriptType="application/ecmascript" contentStyleType="text/css" height="392px" preserveAspectRatio="none" style="width:402px;height:392px;" version="1.1" viewBox="0 0 402 392" width="402px" zoomAndPan="magnify"><defs><filter height="300%" id="f5ls504xvc0i2" width="300%" x="-1" y="-1"><feGaussianBlur result="blurOut" stdDeviation="2.0"/><feColorMatrix in="blurOut" result="blurOut2" type="matrix" values="0 0 0 0 0 0 0 0 0 0 0 0 0 0 0 0 0 0 .4 0"/><feOffset dx="4.0" dy="4.0" in="blurOut2" result="blurOut3"/><feBlend in="SourceGraphic" in2="blurOut3" mode="normal"/></filter></defs><g><!--MD5=[a53acc0afd9fb16e4e4b640238a06f58]
cluster 化学品跟踪系统--><rect fill="#FFFFFF" filter="url(#f5ls504xvc0i2)" height="373" style="stroke:#000000;stroke-width:1.5;" width="155" x="95" y="7"/><text fill="#000000" font-family="sans-serif" font-size="14" font-weight="bold" lengthAdjust="spacing" textLength="98" x="123.5" y="22.5352">化学品跟踪系统</text><ellipse cx="172.6033" cy="348.7838" fill="#FEFECE" filter="url(#f5ls504xvc0i2)" rx="61.6033" ry="14.7838" style="stroke:#A80036;stroke-width:1.5;"/><text fill="#000000" font-family="sans-serif" font-size="14" lengthAdjust="spacing" textLength="70" x="134.6033" y="352.8013">获取数据表</text><ellipse cx="172.6033" cy="218.7838" fill="#FEFECE" filter="url(#f5ls504xvc0i2)" rx="61.6033" ry="14.7838" style="stroke:#A80036;stroke-width:1.5;"/><text fill="#000000" font-family="sans-serif" font-size="14" lengthAdjust="spacing" textLength="70" x="134.6033" y="222.8013">申请化学品</text><ellipse cx="172.6033" cy="56.7838" fill="#FEFECE" filter="url(#f5ls504xvc0i2)" rx="61.6033" ry="14.7838" style="stroke:#A80036;stroke-width:1.5;"/><text fill="#000000" font-family="sans-serif" font-size="14" lengthAdjust="spacing" textLength="70" x="134.6033" y="60.8013">处置化学品</text><ellipse cx="172.2674" cy="138.2036" fill="#FEFECE" filter="url(#f5ls504xvc0i2)" rx="51.2674" ry="14.7036" style="stroke:#A80036;stroke-width:1.5;"/><text fill="#000000" font-family="sans-serif" font-size="14" lengthAdjust="spacing" textLength="56" x="141.2893" y="142.2167">安全验证</text><ellipse cx="172.2674" cy="284.2036" fill="#FEFECE" filter="url(#f5ls504xvc0i2)" rx="51.2674" ry="14.7036" style="stroke:#A80036;stroke-width:1.5;"/><text fill="#000000" font-family="sans-serif" font-size="14" lengthAdjust="spacing" textLength="56" x="141.2893" y="288.2167">管理库存</text><!--MD5=[591b28b1f6e735c25e51605e1efb2feb]
entity 申请人--><ellipse cx="27" cy="188" fill="#FEFECE" filter="url(#f5ls504xvc0i2)" rx="8" ry="8" style="stroke:#A80036;stroke-width:1.5;"/><path d="M27,196 L27,223 M14,204 L40,204 M27,223 L14,238 M27,223 L40,238 " fill="none" filter="url(#f5ls504xvc0i2)" style="stroke:#A80036;stroke-width:1.5;"/><text fill="#000000" font-family="sans-serif" font-size="14" lengthAdjust="spacing" textLength="42" x="6" y="257.0352">申请人</text><!--MD5=[c392960856b8f1dee2d1feae9cd48028]
entity 健康与安全部门--><ellipse cx="346" cy="107" fill="#FEFECE" filter="url(#f5ls504xvc0i2)" rx="8" ry="8" style="stroke:#A80036;stroke-width:1.5;"/><path d="M346,115 L346,142 M333,123 L359,123 M346,142 L333,157 M346,142 L359,157 " fill="none" filter="url(#f5ls504xvc0i2)" style="stroke:#A80036;stroke-width:1.5;"/><text fill="#000000" font-family="sans-serif" font-size="14" lengthAdjust="spacing" textLength="98" x="297" y="176.0352">健康与安全部门</text><!--MD5=[7c2157ab6ce051c6e2ac7d5392aaab17]
entity 仓库部门--><ellipse cx="346" cy="235" fill="#FEFECE" filter="url(#f5ls504xvc0i2)" rx="8" ry="8" style="stroke:#A80036;stroke-width:1.5;"/><path d="M346,243 L346,270 M333,251 L359,251 M346,270 L333,285 M346,270 L359,285 " fill="none" filter="url(#f5ls504xvc0i2)" style="stroke:#A80036;stroke-width:1.5;"/><text fill="#000000" font-family="sans-serif" font-size="14" lengthAdjust="spacing" textLength="56" x="318" y="304.0352">仓库部门</text><!--MD5=[7cce18531dcc740dd2c0d54467e1a859]
link 申请人 to 获取数据表--><path d="M45.17,259.65 C55.02,278.9 69.03,300.92 87,316 C98.94,326.02 114.28,333.23 128.61,338.3 " fill="none" id="申请人-获取数据表" style="stroke:#A80036;stroke-width:1.0;"/><!--MD5=[1c22013700c056b23ecb97d63a3eaabf]
link 申请人 to 申请化学品--><path d="M48.26,219 C64.56,219 88.35,219 110.7,219 " fill="none" id="申请人-申请化学品" style="stroke:#A80036;stroke-width:1.0;"/><!--MD5=[06d32a45bfa78f2183503f9c4b381873]
link 申请人 to 处置化学品--><path d="M42.58,178.39 C52.44,155.16 67.26,126.63 87,106 C101.89,90.44 122.8,78.26 140.1,69.93 " fill="none" id="申请人-处置化学品" style="stroke:#A80036;stroke-width:1.0;"/><!--MD5=[7d8ef5c15e495f03dbd41e866383d2e6]
link 安全验证 to 处置化学品--><path d="M172.5,123.14 C172.5,110.21 172.5,91.34 172.5,77.07 " fill="none" id="安全验证-to-处置化学品" style="stroke:#A80036;stroke-width:1.0;stroke-dasharray:7.0,7.0;"/><polygon fill="#A80036" points="172.5,72.04,168.5,81.04,172.5,77.04,176.5,81.04,172.5,72.04" style="stroke:#A80036;stroke-width:1.0;"/><text fill="#000000" font-family="sans-serif" font-size="13" lengthAdjust="spacing" textLength="57" x="132.5" y="102.8184">«extend»</text><!--MD5=[ffe14bcbef050e998a7c8f919ee0fd1a]
reverse link 申请化学品 to 安全验证--><path d="M172.5,198.71 C172.5,184.37 172.5,165.5 172.5,152.62 " fill="none" id="申请化学品-backto-安全验证" style="stroke:#A80036;stroke-width:1.0;stroke-dasharray:7.0,7.0;"/><polygon fill="#A80036" points="172.5,203.76,176.5,194.76,172.5,198.76,168.5,194.76,172.5,203.76" style="stroke:#A80036;stroke-width:1.0;"/><text fill="#000000" font-family="sans-serif" font-size="13" lengthAdjust="spacing" textLength="57" x="132.5" y="183.3184">«extend»</text><!--MD5=[1132d1d29096c3575e035cb200ea6c3a]
link 安全验证 to 健康与安全部门--><path d="M224.03,138 C247.05,138 274.17,138 296.89,138 " fill="none" id="安全验证-健康与安全部门" style="stroke:#A80036;stroke-width:1.0;"/><!--MD5=[53ec687c1c9f0a457a09e69f91776f6e]
link 管理库存 to 仓库部门--><path d="M221.27,278.99 C252.39,275.72 291.88,271.58 317.76,268.86 " fill="none" id="管理库存-仓库部门" style="stroke:#A80036;stroke-width:1.0;"/><!--MD5=[e1f01d69854f289bc9d85c444dcdf078]
link 申请化学品 to 仓库部门--><path d="M214.14,230.14 C246.14,238.91 289.84,250.88 317.75,258.53 " fill="none" id="申请化学品-仓库部门" style="stroke:#A80036;stroke-width:1.0;"/><!--MD5=[406d8ea576bdbcae419b8a42fcb51bda]
@startuml "Chemical Tracking System"

left to right direction

rectangle "化学品跟踪系统"{
    (获取数据表)
    (申请化学品)
    (处置化学品)
    (安全验证)
    (管理库存)
}

:申请人: - - (获取数据表)
:申请人: - - (申请化学品)
:申请人: - - (处置化学品)
(处置化学品) <.left. (安全验证): <<extend>>
(申请化学品) <.right. (安全验证): <<extend>>
:健康与安全部门: -up- (安全验证)

:仓库部门: -up- (管理库存)
:仓库部门: -up- (申请化学品)

@enduml

PlantUML version 1.2021.00(Sun Jan 10 18:25:05 CST 2021)
(GPL source distribution)
Java Runtime: Java(TM) SE Runtime Environment
JVM: Java HotSpot(TM) 64-Bit Server VM
Default Encoding: UTF-8
Language: en
Country: CN
--></g></svg>