@startuml "student state"

hide empty description

state "potential student" as potential
state "accepted student" as accepted
state "dorm assgned student" as dorm_assigned
state "program student" as program
state "current student" as current
state "continuing student" as continuing
state "graduated student" as graduated

[*] -> potential:application\n submitted
potential -> accepted:requirements\n met
accepted --> dorm_assigned: dorm\n selected
dorm_assigned --> program: program\n selected
program -left-> current: student enrolled\n in class
current --> continuing: successful\n course\n completion
continuing -up-> current: student\n enrolled\n in class
continuing -> graduated: graduation\n requirements\n complete
graduated --> [*]: student\n graduated

@enduml