@startuml "figure 10.08"

|swimlane 1|
start
:activity;

fork
    if (condition?) then (yes)
        :activity;
    else (no)
        :activity;
    endif
|#DimGray|swimlane 2|
fork again
:activity;

|swimlane 1|
end fork

stop

@enduml